{
  "from": 1,
  "to": 5,
  "currentPage": 1,
  "total": 117,
  "totalPages": 24,
  "queryTime": "0.016",
  "totalTime": "0.021",
  "partial": false,
  "canonicalUrl": "/v1/products((search=\"Fantasy\"))?show=regularPrice,shortDescription,name,image,thumbnailImage&sort=regularPrice&pageSize=5&format=json&apiKey=TEaoEZmvBDYZWr2hHVcHOZHY",
  "products": [
    {
      "regularPrice": 7.99,
      "shortDescription": null,
      "name": "Eve's Beach Fantasy [DVD] [1997]",
      "image": "https://pisces.bbystatic.com/image2/BestBuy_US/images/products/1331/13316075_sa.jpg",
      "thumbnailImage": "https://pisces.bbystatic.com/image2/BestBuy_US/images/products/1331/13316075_s.gif"
    },
    {
      "regularPrice": 7.99,
      "shortDescription": null,
      "name": "SEGA AGES Fantasy Zone - Nintendo Switch [Digital]",
      "image": "https://pisces.bbystatic.com/prescaled/500/500/image2/BestBuy_US/images/products/6400/6400996_sd.jpg",
      "thumbnailImage": "https://pisces.bbystatic.com/prescaled/108/54/image2/BestBuy_US/images/products/6400/6400996_sd.jpg"
    },
    {
      "regularPrice": 9.99,
      "shortDescription": null,
      "name": "Final Fantasy: The Spirits Within [Blu-ray] [2001]",
      "image": "https://pisces.bbystatic.com/image2/BestBuy_US/images/products/5577/5577375_sa.jpg",
      "thumbnailImage": "https://pisces.bbystatic.com/image2/BestBuy_US/images/products/5577/5577375_s.gif"
    },
    {
      "regularPrice": 9.99,
      "shortDescription": null,
      "name": "Final Fantasy VII: Advent Children [Blu-ray] [2005]",
      "image": "https://pisces.bbystatic.com/image2/BestBuy_US/images/products/5577/5577384_sa.jpg",
      "thumbnailImage": "https://pisces.bbystatic.com/image2/BestBuy_US/images/products/5577/5577384_s.gif"
    },
    {
      "regularPrice": 9.99,
      "shortDescription": null,
      "name": "Final Fantasy: The Spirits Within [Blu-ray] [2001]",
      "image": "https://pisces.bbystatic.com/image2/BestBuy_US/images/products/8460/8460569_sa.jpg",
      "thumbnailImage": "https://pisces.bbystatic.com/image2/BestBuy_US/images/products/8460/8460569_s.gif"
    }
  ]
}