{
  "from": 1,
  "to": 20,
  "currentPage": 1,
  "total": 90,
  "totalPages": 5,
  "queryTime": "0.016",
  "totalTime": "0.030",
  "partial": false,
  "canonicalUrl": "/v1/products((search=\"Camping+Tent\"))?show=regularPrice,shortDescription,name,image,thumbnailImage&sort=regularPrice&pageSize=20&format=json&apiKey=TEaoEZmvBDYZWr2hHVcHOZHY",
  "products": [
    {
      "regularPrice": 7.99,
      "shortDescription": null,
      "name": "PBS Kids: We Love Camping!",
      "image": "https://pisces.bbystatic.com/prescaled/500/500/image2/BestBuy_US/images/products/df988ffd-25e1-4f2f-a3a3-d81294f1e4fb.jpg",
      "thumbnailImage": "https://pisces.bbystatic.com/prescaled/108/54/image2/BestBuy_US/images/products/df988ffd-25e1-4f2f-a3a3-d81294f1e4fb.jpg"
    },
    {
      "regularPrice": 7.99,
      "shortDescription": null,
      "name": "Daniel Tiger's Neigbhorhood: Daniel Goes Camping [DVD]",
      "image": null,
      "thumbnailImage": null
    },
    {
      "regularPrice": 7.99,
      "shortDescription": null,
      "name": "The Cat in the Hat Knows a Lot About That!: Camping [DVD]",
      "image": "https://pisces.bbystatic.com/image2/BestBuy_US/images/products/3268/32689375_sa.jpg",
      "thumbnailImage": "https://pisces.bbystatic.com/image2/BestBuy_US/images/products/3268/32689375_s.gif"
    },
    {
      "regularPrice": 9.99,
      "shortDescription": null,
      "name": "Daniel Tiger's Neighborhood Double Feature: Daniel Goes Camping/Tiger Family Trip [DVD]",
      "image": null,
      "thumbnailImage": null
    },
    {
      "regularPrice": 9.99,
      "shortDescription": null,
      "name": "The Red Tent [2014]",
      "image": "https://pisces.bbystatic.com/prescaled/500/500/image2/BestBuy_US/images/products/0a63bb6a-399f-4200-a828-7bc9874b2464.jpg",
      "thumbnailImage": "https://pisces.bbystatic.com/prescaled/108/54/image2/BestBuy_US/images/products/0a63bb6a-399f-4200-a828-7bc9874b2464.jpg"
    },
    {
      "regularPrice": 9.99,
      "shortDescription": null,
      "name": "Frasier: The Tenth Season [4 Discs] [DVD]",
      "image": "https://pisces.bbystatic.com/image2/BestBuy_US/images/products/8602/8602559_sa.jpg",
      "thumbnailImage": "https://pisces.bbystatic.com/image2/BestBuy_US/images/products/8602/8602559_s.gif"
    },
    {
      "regularPrice": 9.99,
      "shortDescription": null,
      "name": "Cheers: The Tenth Season [4 Discs] [DVD]",
      "image": "https://pisces.bbystatic.com/image2/BestBuy_US/images/products/8926/8926978_sa.jpg",
      "thumbnailImage": "https://pisces.bbystatic.com/image2/BestBuy_US/images/products/8926/8926978_s.gif"
    },
    {
      "regularPrice": 9.99,
      "shortDescription": null,
      "name": "Stargate SG-1: The Complete Tenth Season [5 Discs]",
      "image": "https://pisces.bbystatic.com/prescaled/500/500/image2/BestBuy_US/images/products/b657e7b8-87a4-4a01-9db1-d89f09b53ed6.jpg",
      "thumbnailImage": "https://pisces.bbystatic.com/prescaled/108/54/image2/BestBuy_US/images/products/b657e7b8-87a4-4a01-9db1-d89f09b53ed6.jpg"
    },
    {
      "regularPrice": 9.99,
      "shortDescription": null,
      "name": "South Park: The Complete Tenth Season [3 Discs] [DVD]",
      "image": "https://pisces.bbystatic.com/image2/BestBuy_US/images/products/8399/8399039_sa.jpg",
      "thumbnailImage": "https://pisces.bbystatic.com/image2/BestBuy_US/images/products/8399/8399039_s.gif"
    },
    {
      "regularPrice": 11.99,
      "shortDescription": null,
      "name": "SpongeBob SquarePants: The Complete Tenth Season [DVD]",
      "image": "https://pisces.bbystatic.com/image2/BestBuy_US/images/products/6371/6371091_sa.jpg",
      "thumbnailImage": "https://pisces.bbystatic.com/image2/BestBuy_US/images/products/6371/6371091_s.gif"
    },
    {
      "regularPrice": 11.99,
      "shortDescription": null,
      "name": "7th Heaven: The Tenth Season [5 Discs]",
      "image": "https://pisces.bbystatic.com/prescaled/500/500/image2/BestBuy_US/images/products/2ba9a908-61e8-4226-968a-d4d909aa7a3d.jpg",
      "thumbnailImage": "https://pisces.bbystatic.com/prescaled/108/54/image2/BestBuy_US/images/products/2ba9a908-61e8-4226-968a-d4d909aa7a3d.jpg"
    },
    {
      "regularPrice": 11.99,
      "shortDescription": null,
      "name": "Hawaii Five-O: The Tenth Season [6 Discs]",
      "image": "https://pisces.bbystatic.com/prescaled/500/500/image2/BestBuy_US/images/products/2491ff53-2ed3-4b27-b050-068a658eef20.jpg",
      "thumbnailImage": "https://pisces.bbystatic.com/prescaled/108/54/image2/BestBuy_US/images/products/2491ff53-2ed3-4b27-b050-068a658eef20.jpg"
    },
    {
      "regularPrice": 11.99,
      "shortDescription": null,
      "name": "CSI: Miami: The Tenth and Final Season [5 Discs]",
      "image": "https://pisces.bbystatic.com/prescaled/500/500/image2/BestBuy_US/images/products/97d389af-107f-41ae-97df-791248dcc122.jpg",
      "thumbnailImage": "https://pisces.bbystatic.com/prescaled/108/54/image2/BestBuy_US/images/products/97d389af-107f-41ae-97df-791248dcc122.jpg"
    },
    {
      "regularPrice": 11.99,
      "shortDescription": null,
      "name": "CSI: Crime Scene Investigation - The Tenth Season [7 Discs]",
      "image": "https://pisces.bbystatic.com/prescaled/500/500/image2/BestBuy_US/images/products/9b19852b-f2da-4eb0-b1a3-89eab37a9b7d.jpg",
      "thumbnailImage": "https://pisces.bbystatic.com/prescaled/108/54/image2/BestBuy_US/images/products/9b19852b-f2da-4eb0-b1a3-89eab37a9b7d.jpg"
    },
    {
      "regularPrice": 12.99,
      "shortDescription": null,
      "name": "Modern Family: The Complete Tenth Season",
      "image": "https://pisces.bbystatic.com/prescaled/500/500/image2/BestBuy_US/images/products/968da03d-a231-404b-9b57-477e13b75842.jpg",
      "thumbnailImage": "https://pisces.bbystatic.com/prescaled/108/54/image2/BestBuy_US/images/products/968da03d-a231-404b-9b57-477e13b75842.jpg"
    },
    {
      "regularPrice": 12.99,
      "shortDescription": null,
      "name": "Grey's Anatomy: Complete Tenth Season [6 Discs]",
      "image": "https://pisces.bbystatic.com/prescaled/500/500/image2/BestBuy_US/images/products/1bb0aa32-1b08-4925-bd03-bad865b1d9e8.jpg",
      "thumbnailImage": "https://pisces.bbystatic.com/prescaled/108/54/image2/BestBuy_US/images/products/1bb0aa32-1b08-4925-bd03-bad865b1d9e8.jpg"
    },
    {
      "regularPrice": 13.99,
      "shortDescription": null,
      "name": "River Camping [12 inch Vinyl Single]",
      "image": null,
      "thumbnailImage": null
    },
    {
      "regularPrice": 14.99,
      "shortDescription": null,
      "name": "Tenth Avenue Angel [DVD] [1948]",
      "image": "https://pisces.bbystatic.com/image2/BestBuy_US/images/products/8383/8383139_sa.jpg",
      "thumbnailImage": "https://pisces.bbystatic.com/image2/BestBuy_US/images/products/8383/8383139_s.gif"
    },
    {
      "regularPrice": 14.99,
      "shortDescription": null,
      "name": "Friends: The Complete Tenth Season [DVD]",
      "image": "https://pisces.bbystatic.com/image2/BestBuy_US/images/products/3463/34632655_sa.jpg",
      "thumbnailImage": "https://pisces.bbystatic.com/image2/BestBuy_US/images/products/3463/34632655_s.gif"
    },
    {
      "regularPrice": 14.99,
      "shortDescription": null,
      "name": "Gunsmoke: The Tenth Season, Vol. 1 [5 Discs] [DVD]",
      "image": "https://pisces.bbystatic.com/image2/BestBuy_US/images/products/2519/25199361_sa.jpg",
      "thumbnailImage": "https://pisces.bbystatic.com/image2/BestBuy_US/images/products/2519/25199361_s.gif"
    }
  ]
}
