{
  "from": 1,
  "to": 20,
  "currentPage": 1,
  "total": 132,
  "totalPages": 7,
  "queryTime": "0.014",
  "totalTime": "0.026",
  "partial": false,
  "canonicalUrl": "/v1/products((search=\"Comedy\"))?show=regularPrice,shortDescription,name,image,thumbnailImage&sort=regularPrice&pageSize=20&format=json&apiKey=TEaoEZmvBDYZWr2hHVcHOZHY",
  "products": [
    {
      "regularPrice": 5.99,
      "shortDescription": null,
      "name": "The Original Kings of Comedy [DVD] [2000]",
      "image": "https://pisces.bbystatic.com/image2/BestBuy_US/images/products/3274/32742695_sa.jpg",
      "thumbnailImage": "https://pisces.bbystatic.com/image2/BestBuy_US/images/products/3274/32742695_s.gif"
    },
    {
      "regularPrice": 5.99,
      "shortDescription": null,
      "name": "Shaq and Cedric the Entertainer Present: All Star Comedy Jam [2009]",
      "image": "https://pisces.bbystatic.com/prescaled/500/500/image2/BestBuy_US/images/products/189044bd-f3d7-457b-baf0-ad7eec839dde.jpg",
      "thumbnailImage": "https://pisces.bbystatic.com/prescaled/108/54/image2/BestBuy_US/images/products/189044bd-f3d7-457b-baf0-ad7eec839dde.jpg"
    },
    {
      "regularPrice": 5.99,
      "shortDescription": null,
      "name": "Shaquille O'Neal Presents: All Star Comedy Jam - Live from South Beach [2009]",
      "image": "https://pisces.bbystatic.com/prescaled/500/500/image2/BestBuy_US/images/products/3bf4efa1-f193-4378-8c2b-9d65859e8443.jpg",
      "thumbnailImage": "https://pisces.bbystatic.com/prescaled/108/54/image2/BestBuy_US/images/products/3bf4efa1-f193-4378-8c2b-9d65859e8443.jpg"
    },
    {
      "regularPrice": 6.99,
      "shortDescription": null,
      "name": "Gary Owen Stand-Up Spotlight: 2 Comedy Specials",
      "image": "https://pisces.bbystatic.com/prescaled/500/500/image2/BestBuy_US/images/products/ec7980f0-611f-4269-b72c-18cfffd8175b.jpg",
      "thumbnailImage": "https://pisces.bbystatic.com/prescaled/108/54/image2/BestBuy_US/images/products/ec7980f0-611f-4269-b72c-18cfffd8175b.jpg"
    },
    {
      "regularPrice": 6.99,
      "shortDescription": null,
      "name": "Anjelah Johnson-Reyes Stand-Up Spotlight: 2 Comedy Specials",
      "image": "https://pisces.bbystatic.com/prescaled/500/500/image2/BestBuy_US/images/products/cfcdb9bd-0548-47c5-a069-b943da2b3ec9.jpg",
      "thumbnailImage": "https://pisces.bbystatic.com/prescaled/108/54/image2/BestBuy_US/images/products/cfcdb9bd-0548-47c5-a069-b943da2b3ec9.jpg"
    },
    {
      "regularPrice": 7.99,
      "shortDescription": null,
      "name": "Hollywood Comedy Classics [2 Discs] [DVD]",
      "image": "https://pisces.bbystatic.com/image2/BestBuy_US/images/products/1971/19710338_sa.jpg",
      "thumbnailImage": "https://pisces.bbystatic.com/image2/BestBuy_US/images/products/1971/19710338_s.gif"
    },
    {
      "regularPrice": 7.99,
      "shortDescription": null,
      "name": "Harold Lloyd's World of Comedy [DVD] [1962]",
      "image": "https://pisces.bbystatic.com/image2/BestBuy_US/images/products/2889/28894071_sa.jpg",
      "thumbnailImage": "https://pisces.bbystatic.com/image2/BestBuy_US/images/products/2889/28894071_s.gif"
    },
    {
      "regularPrice": 7.99,
      "shortDescription": null,
      "name": "Comedy Double Feature: Goon: Last of the Enforcers/Knights of Badassdom [DVD]",
      "image": "https://pisces.bbystatic.com/image2/BestBuy_US/images/products/3523/35231903_sa.jpg",
      "thumbnailImage": "https://pisces.bbystatic.com/image2/BestBuy_US/images/products/3523/35231903_s.gif"
    },
    {
      "regularPrice": 8.99,
      "shortDescription": null,
      "name": "Lost Silent Comedy Collection: Silent Comedy Marathon - Volume 7 [DVD]",
      "image": null,
      "thumbnailImage": null
    },
    {
      "regularPrice": 8.99,
      "shortDescription": null,
      "name": "Comedy Central Roast of David Hasselhoff [DVD]",
      "image": "https://pisces.bbystatic.com/image2/BestBuy_US/images/products/1679/1679686_sa.jpg",
      "thumbnailImage": "https://pisces.bbystatic.com/image2/BestBuy_US/images/products/1679/1679686_s.gif"
    },
    {
      "regularPrice": 8.99,
      "shortDescription": null,
      "name": "Rare TV Comedy of the '50s [DVD]",
      "image": null,
      "thumbnailImage": null
    },
    {
      "regularPrice": 8.99,
      "shortDescription": null,
      "name": "Harold Lloyd One-Reel Comedy Classics [DVD]",
      "image": null,
      "thumbnailImage": null
    },
    {
      "regularPrice": 9.99,
      "shortDescription": null,
      "name": "Classic Comedy Collection",
      "image": "https://pisces.bbystatic.com/prescaled/500/500/image2/BestBuy_US/images/products/2ff5527f-6335-40f2-8cfa-164c7e4e2b41.jpg",
      "thumbnailImage": "https://pisces.bbystatic.com/prescaled/108/54/image2/BestBuy_US/images/products/2ff5527f-6335-40f2-8cfa-164c7e4e2b41.jpg"
    },
    {
      "regularPrice": 9.99,
      "shortDescription": null,
      "name": "The Human Comedy [1943]",
      "image": "https://pisces.bbystatic.com/prescaled/500/500/image2/BestBuy_US/images/products/57c5b47a-4b21-44bb-9f30-bf27fc029a76.jpg",
      "thumbnailImage": "https://pisces.bbystatic.com/prescaled/108/54/image2/BestBuy_US/images/products/57c5b47a-4b21-44bb-9f30-bf27fc029a76.jpg"
    },
    {
      "regularPrice": 9.99,
      "shortDescription": null,
      "name": "A Comedy Dynamics Collection [DVD]",
      "image": "https://pisces.bbystatic.com/image2/BestBuy_US/images/products/3358/33583535_sa.jpg",
      "thumbnailImage": "https://pisces.bbystatic.com/image2/BestBuy_US/images/products/3358/33583535_s.gif"
    },
    {
      "regularPrice": 9.99,
      "shortDescription": null,
      "name": "No Time for Comedy [1940]",
      "image": "https://pisces.bbystatic.com/prescaled/500/500/image2/BestBuy_US/images/products/a8114fe6-90f7-475c-b46e-62b2aa34684d.jpg",
      "thumbnailImage": "https://pisces.bbystatic.com/prescaled/108/54/image2/BestBuy_US/images/products/a8114fe6-90f7-475c-b46e-62b2aa34684d.jpg"
    },
    {
      "regularPrice": 9.99,
      "shortDescription": null,
      "name": "A  Comedy Dynamics Collection [Video] [DVD]",
      "image": "https://pisces.bbystatic.com/image2/BestBuy_US/images/products/3358/33583544_sa.jpg",
      "thumbnailImage": "https://pisces.bbystatic.com/image2/BestBuy_US/images/products/3358/33583544_s.gif"
    },
    {
      "regularPrice": 9.99,
      "shortDescription": null,
      "name": "Hillbilly Comedy Collection Four Feature [DVD]",
      "image": "https://pisces.bbystatic.com/image2/BestBuy_US/images/products/1564/15645483_sa.jpg",
      "thumbnailImage": "https://pisces.bbystatic.com/image2/BestBuy_US/images/products/1564/15645483_s.gif"
    },
    {
      "regularPrice": 9.99,
      "shortDescription": null,
      "name": "Brutal Massacre: A Comedy [Blu-ray] [2007]",
      "image": "https://pisces.bbystatic.com/image2/BestBuy_US/images/products/3486/34866844_sa.jpg",
      "thumbnailImage": "https://pisces.bbystatic.com/image2/BestBuy_US/images/products/3486/34866844_s.gif"
    },
    {
      "regularPrice": 9.99,
      "shortDescription": null,
      "name": "Mike Birbiglia Stand-Up Comedy Collection",
      "image": "https://pisces.bbystatic.com/prescaled/500/500/image2/BestBuy_US/images/products/cac41b55-d69b-40cb-a64d-c767256ce429.jpg",
      "thumbnailImage": "https://pisces.bbystatic.com/prescaled/108/54/image2/BestBuy_US/images/products/cac41b55-d69b-40cb-a64d-c767256ce429.jpg"
    }
  ]
}
