{
  "from": 1,
  "to": 50,
  "currentPage": 1,
  "total": 162,
  "totalPages": 4,
  "queryTime": "0.033",
  "totalTime": "0.073",
  "partial": false,
  "canonicalUrl": "/v1/products((search=\"cooking\")&regularPrice>100)?show=thumbnailImage,image,regularPrice,shortDescription,name&sort=regularPrice&pageSize=50&format=json&apiKey=TEaoEZmvBDYZWr2hHVcHOZHY",
  "products": [
    {
      "thumbnailImage": "https://pisces.bbystatic.com/prescaled/108/54/image2/BestBuy_US/images/products/6495/6495905_rd.jpg",
      "image": "https://pisces.bbystatic.com/prescaled/500/500/image2/BestBuy_US/images/products/6495/6495905_rd.jpg",
      "regularPrice": 117.59,
      "shortDescription": null,
      "name": "Weber - Crafted Porcelain-Enameled Cast Iron Cooking Grates For Spirit 3-Burner Gas Grills & SmokeFire EX4 Pellet Grills - Black"
    },
    {
      "thumbnailImage": "https://pisces.bbystatic.com/prescaled/108/54/image2/BestBuy_US/images/products/6495/6495912_rd.jpg",
      "image": "https://pisces.bbystatic.com/prescaled/500/500/image2/BestBuy_US/images/products/6495/6495912_rd.jpg",
      "regularPrice": 135.49,
      "shortDescription": null,
      "name": "Weber - Cooking Grates for Spirit 300 Series Grills and SmokeFire EX4 Grills - Crafted Stainless Steel"
    },
    {
      "thumbnailImage": "https://pisces.bbystatic.com/prescaled/108/54/image2/BestBuy_US/images/products/6495/6495896_rd.jpg",
      "image": "https://pisces.bbystatic.com/prescaled/500/500/image2/BestBuy_US/images/products/6495/6495896_rd.jpg",
      "regularPrice": 145.99,
      "shortDescription": null,
      "name": "Weber - Crafted Porcelain-Enameled Cast Iron Cooking Grates For Genesis 3-Burner Gas Grills - Black"
    },
    {
      "thumbnailImage": "https://pisces.bbystatic.com/prescaled/108/54/image2/BestBuy_US/images/products/4685/4685300_ra.jpg",
      "image": "https://pisces.bbystatic.com/prescaled/500/500/image2/BestBuy_US/images/products/4685/4685300_ra.jpg",
      "regularPrice": 159.99,
      "shortDescription": "GE Precision Cooking Probe for Select GE Induction Cooktops: Compatible with select GE induction cooktops; Bluetooth connectivity; digital controls; metal, rubber and plastic materials; rechargeable battery",
      "name": "Precision Cooking Probe for Select GE Induction Cooktops - Red/Black/Gray"
    },
    {
      "thumbnailImage": "https://pisces.bbystatic.com/prescaled/108/54/image2/BestBuy_US/images/products/5899/5899116_sd.jpg",
      "image": "https://pisces.bbystatic.com/prescaled/500/500/image2/BestBuy_US/images/products/5899/5899116_sd.jpg",
      "regularPrice": 159.99,
      "shortDescription": null,
      "name": "Farberware - Professional 1.3 Cu. Ft. Countertop Microwave with Sensor Cooking"
    },
    {
      "thumbnailImage": "https://pisces.bbystatic.com/prescaled/108/54/image2/BestBuy_US/images/products/6498/6498485_sd.jpg",
      "image": "https://pisces.bbystatic.com/prescaled/500/500/image2/BestBuy_US/images/products/6498/6498485_sd.jpg",
      "regularPrice": 169.99,
      "shortDescription": null,
      "name": "Whirlpool - 1.1 Cu. Ft. Countertop Microwave with 900W Cooking Power - Silver"
    },
    {
      "thumbnailImage": "https://pisces.bbystatic.com/prescaled/108/54/image2/BestBuy_US/images/products/6495/6495906_rd.jpg",
      "image": "https://pisces.bbystatic.com/prescaled/500/500/image2/BestBuy_US/images/products/6495/6495906_rd.jpg",
      "regularPrice": 179.99,
      "shortDescription": null,
      "name": "Weber - Crafted Porcelain-Enameled Cast Iron Cooking Grates for Genesis 400 Series Grills - Black"
    },
    {
      "thumbnailImage": "https://pisces.bbystatic.com/prescaled/108/54/image2/BestBuy_US/images/products/6237/6237753_sd.jpg",
      "image": "https://pisces.bbystatic.com/prescaled/500/500/image2/BestBuy_US/images/products/6237/6237753_sd.jpg",
      "regularPrice": 194.99,
      "shortDescription": null,
      "name": "GE - 1.6 Cu. Ft. Microwave with Sensor Cooking - Stainless Steel"
    },
    {
      "thumbnailImage": "https://pisces.bbystatic.com/prescaled/108/54/image2/BestBuy_US/images/products/6287/6287689_sa.jpg",
      "image": "https://pisces.bbystatic.com/prescaled/500/500/image2/BestBuy_US/images/products/6287/6287689_sa.jpg",
      "regularPrice": 199,
      "shortDescription": null,
      "name": "Thermador - Wireless Cooking Sensor for Masterpiece Series Cooktops - Black"
    },
    {
      "thumbnailImage": "https://pisces.bbystatic.com/prescaled/108/54/image2/BestBuy_US/images/products/6495/6495917_rd.jpg",
      "image": "https://pisces.bbystatic.com/prescaled/500/500/image2/BestBuy_US/images/products/6495/6495917_rd.jpg",
      "regularPrice": 199.99,
      "shortDescription": null,
      "name": "Weber - Cooking Grates for Genesis 300 Series Grills - Crafted Stainless Steel"
    },
    {
      "thumbnailImage": "https://pisces.bbystatic.com/prescaled/108/54/image2/BestBuy_US/images/products/6405/6405687_sd.jpg",
      "image": "https://pisces.bbystatic.com/prescaled/500/500/image2/BestBuy_US/images/products/6405/6405687_sd.jpg",
      "regularPrice": 199.99,
      "shortDescription": null,
      "name": "Panasonic - 1.3 Cu. Ft. 1100 Watt SD69LS Microwave with Sensor Cooking - Stainless Steel"
    },
    {
      "thumbnailImage": "https://pisces.bbystatic.com/prescaled/108/54/image2/BestBuy_US/images/products/6422/6422311_sd.jpg",
      "image": "https://pisces.bbystatic.com/prescaled/500/500/image2/BestBuy_US/images/products/6422/6422311_sd.jpg",
      "regularPrice": 199.99,
      "shortDescription": "The 30&#8221; Outdoor Fire Pit by Pure Garden has a chic copper colored bowl that is attractive to match any outdoor living space d&#233;cor. The round steel bowl is designed for wood burning and features a 22.5&#8221; diameter cooking grate, a mesh spark screen for safety and an 18&#8221; log poker.",
      "name": "Pure Garden - Portable Fire Pit 30\" Round Copper Colored Fire Bowl, Spark Screen, Log Poker and Grill Grate – Patio Bonfire Pit - Copper and Black"
    },
    {
      "thumbnailImage": "https://pisces.bbystatic.com/prescaled/108/54/image2/BestBuy_US/images/products/6338/6338165_sd.jpg",
      "image": "https://pisces.bbystatic.com/prescaled/500/500/image2/BestBuy_US/images/products/6338/6338165_sd.jpg",
      "regularPrice": 229.95,
      "shortDescription": null,
      "name": "Cuisinart - 1.1 Cu. Ft. Microwave with Sensor Cooking - Black Stainless Steel"
    },
    {
      "thumbnailImage": "https://pisces.bbystatic.com/prescaled/108/54/image2/BestBuy_US/images/products/6276/6276712_sd.jpg",
      "image": "https://pisces.bbystatic.com/prescaled/500/500/image2/BestBuy_US/images/products/6276/6276712_sd.jpg",
      "regularPrice": 229.99,
      "shortDescription": null,
      "name": "Sharp - Carousel 2.2 Cu. Ft. Microwave with Sensor Cooking - Stainless Steel"
    },
    {
      "thumbnailImage": "https://pisces.bbystatic.com/prescaled/108/54/image2/BestBuy_US/images/products/6530/6530069_sd.jpg",
      "image": "https://pisces.bbystatic.com/prescaled/500/500/image2/BestBuy_US/images/products/6530/6530069_sd.jpg",
      "regularPrice": 229.99,
      "shortDescription": null,
      "name": "Sharp - 2.2 cu ft Stainless Family Size Countertop Microwave with Sensor cooking and  Inverter Technology. - Siver"
    },
    {
      "thumbnailImage": "https://pisces.bbystatic.com/prescaled/108/54/image2/BestBuy_US/images/products/6493/6493959_rd.jpg",
      "image": "https://pisces.bbystatic.com/prescaled/500/500/image2/BestBuy_US/images/products/6493/6493959_rd.jpg",
      "regularPrice": 239.99,
      "shortDescription": null,
      "name": "Alfa - 4-Piece Pizza Oven Tool Set - Black"
    },
    {
      "thumbnailImage": "https://pisces.bbystatic.com/prescaled/108/54/image2/BestBuy_US/images/products/5714/5714901_sd.jpg",
      "image": "https://pisces.bbystatic.com/prescaled/500/500/image2/BestBuy_US/images/products/5714/5714901_sd.jpg",
      "regularPrice": 239.99,
      "shortDescription": null,
      "name": "LG - NeoChef 1.5 Cu. Ft. Countertop Microwave with Sensor Cooking and EasyClean - Stainless Steel"
    },
    {
      "thumbnailImage": "https://pisces.bbystatic.com/prescaled/108/54/image2/BestBuy_US/images/products/5714/5714905_sd.jpg",
      "image": "https://pisces.bbystatic.com/prescaled/500/500/image2/BestBuy_US/images/products/5714/5714905_sd.jpg",
      "regularPrice": 259.99,
      "shortDescription": null,
      "name": "LG - NeoChef 2.0 Cu. Ft. Countertop Microwave with Sensor Cooking and EasyClean - Stainless Steel"
    },
    {
      "thumbnailImage": "https://pisces.bbystatic.com/prescaled/108/54/image2/BestBuy_US/images/products/5714/5714902_sd.jpg",
      "image": "https://pisces.bbystatic.com/prescaled/500/500/image2/BestBuy_US/images/products/5714/5714902_sd.jpg",
      "regularPrice": 259.99,
      "shortDescription": null,
      "name": "LG - NeoChef 1.5 Cu. Ft. Countertop Microwave with Sensor Cooking and EasyClean - Black Stainless Steel"
    },
    {
      "thumbnailImage": "https://pisces.bbystatic.com/prescaled/108/54/image2/BestBuy_US/images/products/6524/6524274_rd.jpg",
      "image": "https://pisces.bbystatic.com/prescaled/500/500/image2/BestBuy_US/images/products/6524/6524274_rd.jpg",
      "regularPrice": 269,
      "shortDescription": null,
      "name": "Alfa - 4-Piece Pizza Oven Tool Set - Red"
    },
    {
      "thumbnailImage": "https://pisces.bbystatic.com/prescaled/108/54/image2/BestBuy_US/images/products/6051/6051063_sd.jpg",
      "image": "https://pisces.bbystatic.com/prescaled/500/500/image2/BestBuy_US/images/products/6051/6051063_sd.jpg",
      "regularPrice": 279.99,
      "shortDescription": null,
      "name": "Whirlpool - 1.6 Cu. Ft. Microwave with Sensor Cooking - Black"
    },
    {
      "thumbnailImage": "https://pisces.bbystatic.com/prescaled/108/54/image2/BestBuy_US/images/products/6051/6051067_sd.jpg",
      "image": "https://pisces.bbystatic.com/prescaled/500/500/image2/BestBuy_US/images/products/6051/6051067_sd.jpg",
      "regularPrice": 279.99,
      "shortDescription": null,
      "name": "Whirlpool - 1.6 Cu. Ft. Microwave with Sensor Cooking - White"
    },
    {
      "thumbnailImage": "https://pisces.bbystatic.com/prescaled/108/54/image2/BestBuy_US/images/products/5714/5714907_sd.jpg",
      "image": "https://pisces.bbystatic.com/prescaled/500/500/image2/BestBuy_US/images/products/5714/5714907_sd.jpg",
      "regularPrice": 279.99,
      "shortDescription": null,
      "name": "LG - NeoChef 2.0 Cu. Ft. Countertop Microwave with Sensor Cooking and EasyClean - Black Stainless Steel"
    },
    {
      "thumbnailImage": "https://pisces.bbystatic.com/prescaled/108/54/image2/BestBuy_US/images/products/3901/3901007_sd.jpg",
      "image": "https://pisces.bbystatic.com/prescaled/500/500/image2/BestBuy_US/images/products/3901/3901007_sd.jpg",
      "regularPrice": 319.99,
      "shortDescription": null,
      "name": "Samsung - 1.8 cu. ft.  Over-the-Range Fingerprint Resistant  Microwave with Sensor Cooking - Stainless Steel"
    },
    {
      "thumbnailImage": "https://pisces.bbystatic.com/prescaled/108/54/image2/BestBuy_US/images/products/6051/6051064_sd.jpg",
      "image": "https://pisces.bbystatic.com/prescaled/500/500/image2/BestBuy_US/images/products/6051/6051064_sd.jpg",
      "regularPrice": 329.99,
      "shortDescription": null,
      "name": "Whirlpool - 2.2 Cu. Ft. Microwave with Sensor Cooking - White"
    },
    {
      "thumbnailImage": "https://pisces.bbystatic.com/prescaled/108/54/image2/BestBuy_US/images/products/6051/6051065_sd.jpg",
      "image": "https://pisces.bbystatic.com/prescaled/500/500/image2/BestBuy_US/images/products/6051/6051065_sd.jpg",
      "regularPrice": 329.99,
      "shortDescription": null,
      "name": "Whirlpool - 2.2 Cu. Ft. Microwave with Sensor Cooking - Black"
    },
    {
      "thumbnailImage": "https://pisces.bbystatic.com/prescaled/108/54/image2/BestBuy_US/images/products/5291/5291508_sd.jpg",
      "image": "https://pisces.bbystatic.com/prescaled/500/500/image2/BestBuy_US/images/products/5291/5291508_sd.jpg",
      "regularPrice": 344.99,
      "shortDescription": null,
      "name": "GE - 1.7 Cu. Ft. Over-the-Range Microwave with Sensor Cooking - Black"
    },
    {
      "thumbnailImage": "https://pisces.bbystatic.com/prescaled/108/54/image2/BestBuy_US/images/products/5291/5291526_sd.jpg",
      "image": "https://pisces.bbystatic.com/prescaled/500/500/image2/BestBuy_US/images/products/5291/5291526_sd.jpg",
      "regularPrice": 344.99,
      "shortDescription": null,
      "name": "GE - 1.7 Cu. Ft. Over-the-Range Microwave with Sensor Cooking - White"
    },
    {
      "thumbnailImage": "https://pisces.bbystatic.com/prescaled/108/54/image2/BestBuy_US/images/products/6473/6473168_sd.jpg",
      "image": "https://pisces.bbystatic.com/prescaled/500/500/image2/BestBuy_US/images/products/6473/6473168_sd.jpg",
      "regularPrice": 349.95,
      "shortDescription": null,
      "name": "Revolution Cooking - Revolution InstaGLO R180 Toaster - Black"
    },
    {
      "thumbnailImage": "https://pisces.bbystatic.com/prescaled/108/54/image2/BestBuy_US/images/products/6412/6412512_sd.jpg",
      "image": "https://pisces.bbystatic.com/prescaled/500/500/image2/BestBuy_US/images/products/6412/6412512_sd.jpg",
      "regularPrice": 349.95,
      "shortDescription": null,
      "name": "Revolution Cooking - Revolution InstaGLO R180 Toaster - Stainless Steel"
    },
    {
      "thumbnailImage": "https://pisces.bbystatic.com/prescaled/108/54/image2/BestBuy_US/images/products/6051/6051061_sd.jpg",
      "image": "https://pisces.bbystatic.com/prescaled/500/500/image2/BestBuy_US/images/products/6051/6051061_sd.jpg",
      "regularPrice": 349.99,
      "shortDescription": null,
      "name": "Whirlpool - 1.6 Cu. Ft. Microwave with Sensor Cooking - Black Stainless Steel"
    },
    {
      "thumbnailImage": "https://pisces.bbystatic.com/prescaled/108/54/image2/BestBuy_US/images/products/3544/3544001_sd.jpg",
      "image": "https://pisces.bbystatic.com/prescaled/500/500/image2/BestBuy_US/images/products/3544/3544001_sd.jpg",
      "regularPrice": 369.99,
      "shortDescription": null,
      "name": "LG - 1.8 Cu. Ft. Over-the-Range Microwave with Sensor Cooking and EasyClean - Stainless Steel"
    },
    {
      "thumbnailImage": "https://pisces.bbystatic.com/prescaled/108/54/image2/BestBuy_US/images/products/6076/6076713_sd.jpg",
      "image": "https://pisces.bbystatic.com/prescaled/500/500/image2/BestBuy_US/images/products/6076/6076713_sd.jpg",
      "regularPrice": 379.99,
      "shortDescription": null,
      "name": "Frigidaire - Gallery 1.7 Cu. Ft. Over-the-Range Microwave with Sensor Cooking - Stainless Steel"
    },
    {
      "thumbnailImage": "https://pisces.bbystatic.com/prescaled/108/54/image2/BestBuy_US/images/products/6314/6314380_sd.jpg",
      "image": "https://pisces.bbystatic.com/prescaled/500/500/image2/BestBuy_US/images/products/6314/6314380_sd.jpg",
      "regularPrice": 379.99,
      "shortDescription": null,
      "name": "Panasonic - 2.2 Cu. Ft. 1250 Watt SN97JS Microwave with Cyclonic Inverter and Sensor Cooking - Stainless Steel"
    },
    {
      "thumbnailImage": "https://pisces.bbystatic.com/prescaled/108/54/image2/BestBuy_US/images/products/6237/6237751cv12d.jpg",
      "image": "https://pisces.bbystatic.com/prescaled/500/500/image2/BestBuy_US/images/products/6237/6237751cv12d.jpg",
      "regularPrice": 389.99,
      "shortDescription": null,
      "name": "Whirlpool - 1.9 Cu. Ft. Over-the-Range Microwave with Sensor Cooking - White"
    },
    {
      "thumbnailImage": "https://pisces.bbystatic.com/prescaled/108/54/image2/BestBuy_US/images/products/6413/6413174_sd.jpg",
      "image": "https://pisces.bbystatic.com/prescaled/500/500/image2/BestBuy_US/images/products/6413/6413174_sd.jpg",
      "regularPrice": 389.99,
      "shortDescription": null,
      "name": "LG - 1.8 Cu. Ft. Over-the-Range Microwave with Sensor Cooking and EasyClean - Stainless Steel"
    },
    {
      "thumbnailImage": "https://pisces.bbystatic.com/prescaled/108/54/image2/BestBuy_US/images/products/6508/6508562_sd.jpg",
      "image": "https://pisces.bbystatic.com/prescaled/500/500/image2/BestBuy_US/images/products/6508/6508562_sd.jpg",
      "regularPrice": 389.99,
      "shortDescription": null,
      "name": "LG - 1.8 Cu. Ft. Over-the-Range Smart Microwave with Sensor Cooking and EasyClean - Stainless Steel"
    },
    {
      "thumbnailImage": "https://pisces.bbystatic.com/prescaled/108/54/image2/BestBuy_US/images/products/6021/6021908_sd.jpg",
      "image": "https://pisces.bbystatic.com/prescaled/500/500/image2/BestBuy_US/images/products/6021/6021908_sd.jpg",
      "regularPrice": 399.99,
      "shortDescription": null,
      "name": "Whirlpool - 2.2 Cu. Ft. Microwave with Sensor Cooking - Stainless Steel"
    },
    {
      "thumbnailImage": "https://pisces.bbystatic.com/prescaled/108/54/image2/BestBuy_US/images/products/6021/6021907_sd.jpg",
      "image": "https://pisces.bbystatic.com/prescaled/500/500/image2/BestBuy_US/images/products/6021/6021907_sd.jpg",
      "regularPrice": 399.99,
      "shortDescription": null,
      "name": "Whirlpool - 2.2 Cu. Ft. Microwave with Sensor Cooking - Black Stainless Steel"
    },
    {
      "thumbnailImage": "https://pisces.bbystatic.com/prescaled/108/54/image2/BestBuy_US/images/products/6179/6179976_sa.jpg",
      "image": "https://pisces.bbystatic.com/prescaled/500/500/image2/BestBuy_US/images/products/6179/6179976_sa.jpg",
      "regularPrice": 399.99,
      "shortDescription": null,
      "name": "Sharp - 1.5 Cu. Ft. Built-In Microwave with Sensor Cooking - Stainless steel"
    },
    {
      "thumbnailImage": "https://pisces.bbystatic.com/prescaled/108/54/image2/BestBuy_US/images/products/5902/5902620_sd.jpg",
      "image": "https://pisces.bbystatic.com/prescaled/500/500/image2/BestBuy_US/images/products/5902/5902620_sd.jpg",
      "regularPrice": 419.99,
      "shortDescription": null,
      "name": "LG - 1.8 Cu. Ft. Over-the-Range Microwave with Sensor Cooking and EasyClean - Black Stainless Steel"
    },
    {
      "thumbnailImage": "https://pisces.bbystatic.com/prescaled/108/54/image2/BestBuy_US/images/products/5291/5291511_sd.jpg",
      "image": "https://pisces.bbystatic.com/prescaled/500/500/image2/BestBuy_US/images/products/5291/5291511_sd.jpg",
      "regularPrice": 434.99,
      "shortDescription": null,
      "name": "GE - 1.9 Cu. Ft. Over-the-Range Microwave with Sensor Cooking - White"
    },
    {
      "thumbnailImage": "https://pisces.bbystatic.com/prescaled/108/54/image2/BestBuy_US/images/products/5291/5291520_sd.jpg",
      "image": "https://pisces.bbystatic.com/prescaled/500/500/image2/BestBuy_US/images/products/5291/5291520_sd.jpg",
      "regularPrice": 434.99,
      "shortDescription": null,
      "name": "GE - 1.9 Cu. Ft. Over-the-Range Microwave with Sensor Cooking - Black"
    },
    {
      "thumbnailImage": "https://pisces.bbystatic.com/prescaled/108/54/image2/BestBuy_US/images/products/5900/5900308_sd.jpg",
      "image": "https://pisces.bbystatic.com/prescaled/500/500/image2/BestBuy_US/images/products/5900/5900308_sd.jpg",
      "regularPrice": 434.99,
      "shortDescription": null,
      "name": "Whirlpool - 1.9 Cu. Ft. Over-the-Range Microwave with Sensor Cooking - Stainless Steel"
    },
    {
      "thumbnailImage": "https://pisces.bbystatic.com/prescaled/108/54/image2/BestBuy_US/images/products/6508/6508554_sd.jpg",
      "image": "https://pisces.bbystatic.com/prescaled/500/500/image2/BestBuy_US/images/products/6508/6508554_sd.jpg",
      "regularPrice": 439.99,
      "shortDescription": null,
      "name": "LG - 1.8 Cu. Ft. Over-the-Range Microwave with Sensor Cooking and EasyClean - Black Stainless Steel"
    },
    {
      "thumbnailImage": "https://pisces.bbystatic.com/prescaled/108/54/image2/BestBuy_US/images/products/5900/5900290_sd.jpg",
      "image": "https://pisces.bbystatic.com/prescaled/500/500/image2/BestBuy_US/images/products/5900/5900290_sd.jpg",
      "regularPrice": 449.99,
      "shortDescription": null,
      "name": "Whirlpool - 2.1 Cu. Ft. Over-the-Range Microwave with Sensor Cooking - Black"
    },
    {
      "thumbnailImage": "https://pisces.bbystatic.com/prescaled/108/54/image2/BestBuy_US/images/products/6355/6355402_sa.jpg",
      "image": "https://pisces.bbystatic.com/prescaled/500/500/image2/BestBuy_US/images/products/6355/6355402_sa.jpg",
      "regularPrice": 449.99,
      "shortDescription": null,
      "name": "Frigidaire - Gallery 1.7 Cu. Ft. Over-the-Range Microwave with Sensor Cooking - Black"
    },
    {
      "thumbnailImage": "https://pisces.bbystatic.com/prescaled/108/54/image2/BestBuy_US/images/products/3544/3544029_sd.jpg",
      "image": "https://pisces.bbystatic.com/prescaled/500/500/image2/BestBuy_US/images/products/3544/3544029_sd.jpg",
      "regularPrice": 449.99,
      "shortDescription": null,
      "name": "LG - 2.0 Cu. Ft. Over-the-Range Microwave with Sensor Cooking and EasyClean - Stainless Steel"
    },
    {
      "thumbnailImage": "https://pisces.bbystatic.com/prescaled/108/54/image2/BestBuy_US/images/products/6508/6508563_sd.jpg",
      "image": "https://pisces.bbystatic.com/prescaled/500/500/image2/BestBuy_US/images/products/6508/6508563_sd.jpg",
      "regularPrice": 459.99,
      "shortDescription": null,
      "name": "LG - 2.0 Cu. Ft. Over-the-Range Microwave with Sensor Cooking and EasyClean - Stainless Steel"
    },
    {
      "thumbnailImage": "https://pisces.bbystatic.com/prescaled/108/54/image2/BestBuy_US/images/products/6469/6469101_sd.jpg",
      "image": "https://pisces.bbystatic.com/prescaled/500/500/image2/BestBuy_US/images/products/6469/6469101_sd.jpg",
      "regularPrice": 459.99,
      "shortDescription": null,
      "name": "Samsung - BESPOKE 2.1 cu. ft. Smart Over-the-Range Microwave with Sensor Cooking - Navy Steel"
    }
  ]
}
