{
  "from": 1,
  "to": 20,
  "currentPage": 1,
  "total": 35,
  "totalPages": 2,
  "queryTime": "0.013",
  "totalTime": "0.026",
  "partial": false,
  "canonicalUrl": "/v1/products((search=\"Drama\"))?show=regularPrice,shortDescription,name,image,thumbnailImage&sort=regularPrice&pageSize=20&format=json&apiKey=TEaoEZmvBDYZWr2hHVcHOZHY",
  "products": [
    {
      "regularPrice": 9.99,
      "shortDescription": null,
      "name": "Clint Eastwood Drama: 4 Film Favorites [4 Discs] [DVD]",
      "image": "https://pisces.bbystatic.com/image2/BestBuy_US/images/products/9775/9775266_sa.jpg",
      "thumbnailImage": "https://pisces.bbystatic.com/image2/BestBuy_US/images/products/9775/9775266_s.gif"
    },
    {
      "regularPrice": 9.99,
      "shortDescription": null,
      "name": "Confession of a Teenage Drama Queen/The Lizzie McGuire Movie [2 Discs] [DVD]",
      "image": "https://pisces.bbystatic.com/image2/BestBuy_US/images/products/9374/9374385_sa.jpg",
      "thumbnailImage": "https://pisces.bbystatic.com/image2/BestBuy_US/images/products/9374/9374385_s.gif"
    },
    {
      "regularPrice": 12.99,
      "shortDescription": null,
      "name": "WWE: Drama Double Feature - Legendary/That's What I Am [2 Discs] [DVD]",
      "image": "https://pisces.bbystatic.com/image2/BestBuy_US/images/products/2502/25028214_sa.jpg",
      "thumbnailImage": "https://pisces.bbystatic.com/image2/BestBuy_US/images/products/2502/25028214_s.gif"
    },
    {
      "regularPrice": 16.99,
      "shortDescription": null,
      "name": "Dance Without Me [LP] - VINYL",
      "image": "https://pisces.bbystatic.com/image2/BestBuy_US/images/products/3483/34832281_sa.jpg",
      "thumbnailImage": "https://pisces.bbystatic.com/image2/BestBuy_US/images/products/3483/34832281_s.gif"
    },
    {
      "regularPrice": 16.99,
      "shortDescription": null,
      "name": "Up Against the Bricks [LP] - VINYL",
      "image": "https://pisces.bbystatic.com/image2/BestBuy_US/images/products/3269/32699924_sa.jpg",
      "thumbnailImage": "https://pisces.bbystatic.com/image2/BestBuy_US/images/products/3269/32699924_s.gif"
    },
    {
      "regularPrice": 16.99,
      "shortDescription": null,
      "name": "Revel in the Drama [LP] - VINYL",
      "image": "https://pisces.bbystatic.com/image2/BestBuy_US/images/products/3489/34890722_sa.jpg",
      "thumbnailImage": "https://pisces.bbystatic.com/image2/BestBuy_US/images/products/3489/34890722_s.gif"
    },
    {
      "regularPrice": 19.99,
      "shortDescription": null,
      "name": "British Cinema, Vol. 3: Dramas [2 Discs]",
      "image": "https://pisces.bbystatic.com/prescaled/500/500/image2/BestBuy_US/images/products/8c690dc8-0b3c-4c65-b91b-980a133c294e.jpg",
      "thumbnailImage": "https://pisces.bbystatic.com/prescaled/108/54/image2/BestBuy_US/images/products/8c690dc8-0b3c-4c65-b91b-980a133c294e.jpg"
    },
    {
      "regularPrice": 19.99,
      "shortDescription": null,
      "name": "Drama Bundle 5-Pack",
      "image": "https://pisces.bbystatic.com/prescaled/500/500/image2/BestBuy_US/images/products/074877dd-1411-488a-bdee-58734e112684.jpg",
      "thumbnailImage": "https://pisces.bbystatic.com/prescaled/108/54/image2/BestBuy_US/images/products/074877dd-1411-488a-bdee-58734e112684.jpg"
    },
    {
      "regularPrice": 22.99,
      "shortDescription": null,
      "name": "Dramas del Primer Mundo [LP] - VINYL",
      "image": "https://pisces.bbystatic.com/image2/BestBuy_US/images/products/3488/34889796_sa.jpg",
      "thumbnailImage": "https://pisces.bbystatic.com/image2/BestBuy_US/images/products/3488/34889796_s.gif"
    },
    {
      "regularPrice": 22.99,
      "shortDescription": null,
      "name": "Drama [LP] - VINYL",
      "image": "https://pisces.bbystatic.com/image2/BestBuy_US/images/products/3525/35257529_sa.jpg",
      "thumbnailImage": "https://pisces.bbystatic.com/image2/BestBuy_US/images/products/3525/35257529_s.gif"
    },
    {
      "regularPrice": 22.99,
      "shortDescription": null,
      "name": "Drama [LP] - VINYL",
      "image": "https://pisces.bbystatic.com/image2/BestBuy_US/images/products/3528/35289195_sa.jpg",
      "thumbnailImage": "https://pisces.bbystatic.com/image2/BestBuy_US/images/products/3528/35289195_s.gif"
    },
    {
      "regularPrice": 22.99,
      "shortDescription": null,
      "name": "The Bedside Drama: A Petite Tragedy [LP] - VINYL",
      "image": "https://pisces.bbystatic.com/image2/BestBuy_US/images/products/1815/18150947_sa.jpg",
      "thumbnailImage": "https://pisces.bbystatic.com/image2/BestBuy_US/images/products/1815/18150947_s.gif"
    },
    {
      "regularPrice": 22.99,
      "shortDescription": null,
      "name": "Ethio Meditations/Drama Al Dente [LP] - VINYL",
      "image": "https://pisces.bbystatic.com/prescaled/500/500/image2/BestBuy_US/images/products/fde7dedf-c46b-4983-9dd3-e6c44727d484.jpg",
      "thumbnailImage": "https://pisces.bbystatic.com/prescaled/108/54/image2/BestBuy_US/images/products/fde7dedf-c46b-4983-9dd3-e6c44727d484.jpg"
    },
    {
      "regularPrice": 23.99,
      "shortDescription": null,
      "name": "I'm Really Like That [LP] - VINYL",
      "image": "https://pisces.bbystatic.com/prescaled/500/500/image2/BestBuy_US/images/products/f0800490-6729-4f93-b2f6-62bd7e7e781f.jpg",
      "thumbnailImage": "https://pisces.bbystatic.com/prescaled/108/54/image2/BestBuy_US/images/products/f0800490-6729-4f93-b2f6-62bd7e7e781f.jpg"
    },
    {
      "regularPrice": 23.99,
      "shortDescription": null,
      "name": "High Drama [LP] - VINYL",
      "image": "https://pisces.bbystatic.com/prescaled/500/500/image2/BestBuy_US/images/products/9c4118a5-9901-4528-9675-3b6e40c6272a.jpg",
      "thumbnailImage": "https://pisces.bbystatic.com/prescaled/108/54/image2/BestBuy_US/images/products/9c4118a5-9901-4528-9675-3b6e40c6272a.jpg"
    },
    {
      "regularPrice": 23.99,
      "shortDescription": null,
      "name": "Drama Queen [LP] - VINYL",
      "image": "https://pisces.bbystatic.com/prescaled/500/500/image2/BestBuy_US/images/products/257993b6-765a-4c91-b8bd-4289d38ec48e.jpg",
      "thumbnailImage": "https://pisces.bbystatic.com/prescaled/108/54/image2/BestBuy_US/images/products/257993b6-765a-4c91-b8bd-4289d38ec48e.jpg"
    },
    {
      "regularPrice": 29.99,
      "shortDescription": null,
      "name": "Ten Small Fractures [LP] - VINYL",
      "image": "https://pisces.bbystatic.com/prescaled/500/500/image2/BestBuy_US/images/products/86db2121-49f3-4863-a296-475bd50fca31.jpg",
      "thumbnailImage": "https://pisces.bbystatic.com/prescaled/108/54/image2/BestBuy_US/images/products/86db2121-49f3-4863-a296-475bd50fca31.jpg"
    },
    {
      "regularPrice": 29.99,
      "shortDescription": null,
      "name": "Amateur Dramatics [LP] - VINYL",
      "image": "https://pisces.bbystatic.com/image2/BestBuy_US/images/products/3531/35316462_sa.jpg",
      "thumbnailImage": "https://pisces.bbystatic.com/image2/BestBuy_US/images/products/3531/35316462_s.gif"
    },
    {
      "regularPrice": 29.99,
      "shortDescription": null,
      "name": "Drama of Exile [LP] - VINYL",
      "image": "https://pisces.bbystatic.com/prescaled/500/500/image2/BestBuy_US/images/products/987db22d-1fd7-4e33-8546-66108085a915.jpg",
      "thumbnailImage": "https://pisces.bbystatic.com/prescaled/108/54/image2/BestBuy_US/images/products/987db22d-1fd7-4e33-8546-66108085a915.jpg"
    },
    {
      "regularPrice": 32.99,
      "shortDescription": null,
      "name": "Gallows [Violet Vinyl] [LP] - VINYL",
      "image": "https://pisces.bbystatic.com/prescaled/500/500/image2/BestBuy_US/images/products/985a1295-5fa5-43bb-a036-106cc43041e9.jpg",
      "thumbnailImage": "https://pisces.bbystatic.com/prescaled/108/54/image2/BestBuy_US/images/products/985a1295-5fa5-43bb-a036-106cc43041e9.jpg"
    }
  ]
}
