{
  "from": 1,
  "to": 20,
  "currentPage": 1,
  "total": 835,
  "totalPages": 42,
  "queryTime": "0.014",
  "totalTime": "0.030",
  "partial": false,
  "canonicalUrl": "/v1/products((search=\"Pop\"))?show=regularPrice,shortDescription,name,image,thumbnailImage&sort=regularPrice&pageSize=20&format=json&apiKey=TEaoEZmvBDYZWr2hHVcHOZHY",
  "products": [
    {
      "regularPrice": 4.99,
      "shortDescription": null,
      "name": "Bejeweled 3 - Windows [Digital]",
      "image": "https://pisces.bbystatic.com/prescaled/500/500/image2/BestBuy_US/images/products/6610/6610297_sd.jpg",
      "thumbnailImage": "https://pisces.bbystatic.com/prescaled/108/54/image2/BestBuy_US/images/products/6610/6610297_sd.jpg"
    },
    {
      "regularPrice": 4.99,
      "shortDescription": null,
      "name": "Funko - POP! Keychain: Marvel Studios' Doctor Strange in the Multiverse of Madness - Sinister Strange",
      "image": "https://pisces.bbystatic.com/prescaled/500/500/image2/BestBuy_US/images/products/6504/6504863_sd.jpg",
      "thumbnailImage": "https://pisces.bbystatic.com/prescaled/108/54/image2/BestBuy_US/images/products/6504/6504863_sd.jpg"
    },
    {
      "regularPrice": 4.99,
      "shortDescription": null,
      "name": "Funko - POP! Keychain: Marvel Studios' Doctor Strange in the Multiverse of Madness - America Chavez",
      "image": "https://pisces.bbystatic.com/prescaled/500/500/image2/BestBuy_US/images/products/6504/6504876_sd.jpg",
      "thumbnailImage": "https://pisces.bbystatic.com/prescaled/108/54/image2/BestBuy_US/images/products/6504/6504876_sd.jpg"
    },
    {
      "regularPrice": 5.99,
      "shortDescription": null,
      "name": "Barbie: It Takes Two - Pop Star Plans",
      "image": "https://pisces.bbystatic.com/prescaled/500/500/image2/BestBuy_US/images/products/9d1dfaea-7bde-43b1-a62b-39e84936c62c.jpg",
      "thumbnailImage": "https://pisces.bbystatic.com/prescaled/108/54/image2/BestBuy_US/images/products/9d1dfaea-7bde-43b1-a62b-39e84936c62c.jpg"
    },
    {
      "regularPrice": 7.99,
      "shortDescription": null,
      "name": "Funko - Premium POP Protector - Multi",
      "image": "https://pisces.bbystatic.com/prescaled/500/500/image2/BestBuy_US/images/products/6228/6228308_sd.jpg",
      "thumbnailImage": "https://pisces.bbystatic.com/prescaled/108/54/image2/BestBuy_US/images/products/6228/6228308_sd.jpg"
    },
    {
      "regularPrice": 7.99,
      "shortDescription": null,
      "name": "Thomas & Friends: Pop Goes Thomas [2011]",
      "image": "https://pisces.bbystatic.com/prescaled/500/500/image2/BestBuy_US/images/products/d4029e35-10da-4730-9833-e8c536452d6d.jpg",
      "thumbnailImage": "https://pisces.bbystatic.com/prescaled/108/54/image2/BestBuy_US/images/products/d4029e35-10da-4730-9833-e8c536452d6d.jpg"
    },
    {
      "regularPrice": 7.99,
      "shortDescription": null,
      "name": "Funko - POP! Vinyl: G.I. Joe - Scarlett",
      "image": "https://pisces.bbystatic.com/image2/BestBuy_US/images/products/6463/6463025cv11d.jpg",
      "thumbnailImage": null
    },
    {
      "regularPrice": 7.99,
      "shortDescription": null,
      "name": "Funko - POP! Animation: Powerpuff Girls - Fuzzy Lumpkins",
      "image": "https://pisces.bbystatic.com/image2/BestBuy_US/images/products/6480/6480523cv11d.jpg",
      "thumbnailImage": null
    },
    {
      "regularPrice": 7.99,
      "shortDescription": null,
      "name": "Moscow Case 1993: When King of Pop Met the Soviets [DVD]",
      "image": "https://pisces.bbystatic.com/image2/BestBuy_US/images/products/7784/7784214_sa.jpg",
      "thumbnailImage": "https://pisces.bbystatic.com/image2/BestBuy_US/images/products/7784/7784214_s.gif"
    },
    {
      "regularPrice": 8.39,
      "shortDescription": null,
      "name": "Funko - POP! Marvel: Eternals- Ajak",
      "image": "https://pisces.bbystatic.com/image2/BestBuy_US/images/products/6482/6482171cv11d.jpg",
      "thumbnailImage": null
    },
    {
      "regularPrice": 8.99,
      "shortDescription": null,
      "name": "Mary Poppins Returns [DVD] [2018]",
      "image": "https://pisces.bbystatic.com/image2/BestBuy_US/images/products/6320/6320945_sa.jpg",
      "thumbnailImage": "https://pisces.bbystatic.com/image2/BestBuy_US/images/products/6320/6320945_s.gif"
    },
    {
      "regularPrice": 8.99,
      "shortDescription": null,
      "name": "Mickey Mouse Clubhouse: Pop Star Minnie [DVD]",
      "image": "https://pisces.bbystatic.com/image2/BestBuy_US/images/products/4677/4677309_sa.jpg",
      "thumbnailImage": "https://pisces.bbystatic.com/image2/BestBuy_US/images/products/4677/4677309_s.gif"
    },
    {
      "regularPrice": 8.99,
      "shortDescription": null,
      "name": "Mary Poppins [50th Anniversary Edition] [Includes Digital Copy] [DVD] [1964]",
      "image": "https://pisces.bbystatic.com/image2/BestBuy_US/images/products/2658/2658063_sa.jpg",
      "thumbnailImage": "https://pisces.bbystatic.com/image2/BestBuy_US/images/products/2658/2658063_s.gif"
    },
    {
      "regularPrice": 9.39,
      "shortDescription": null,
      "name": "Funko - POP! Marvel: Eternals - Phastos",
      "image": "https://pisces.bbystatic.com/image2/BestBuy_US/images/products/6480/6480528cv11d.jpg",
      "thumbnailImage": null
    },
    {
      "regularPrice": 9.99,
      "shortDescription": null,
      "name": "PopSockets - PopGrip Cell Phone Grip & Stand - Black",
      "image": "https://pisces.bbystatic.com/prescaled/500/500/image2/BestBuy_US/images/products/6331/6331946_rd.jpg",
      "thumbnailImage": "https://pisces.bbystatic.com/prescaled/108/54/image2/BestBuy_US/images/products/6331/6331946_rd.jpg"
    },
    {
      "regularPrice": 9.99,
      "shortDescription": null,
      "name": "PopSockets - PopMount 2 Multi-Surface Mount - Black",
      "image": "https://pisces.bbystatic.com/prescaled/500/500/image2/BestBuy_US/images/products/6402/6402064_rd.jpg",
      "thumbnailImage": "https://pisces.bbystatic.com/prescaled/108/54/image2/BestBuy_US/images/products/6402/6402064_rd.jpg"
    },
    {
      "regularPrice": 9.99,
      "shortDescription": null,
      "name": "PopSockets - PopGrip Cell Phone Grip & Stand - Clear",
      "image": "https://pisces.bbystatic.com/prescaled/500/500/image2/BestBuy_US/images/products/6452/6452014_sd.jpg",
      "thumbnailImage": "https://pisces.bbystatic.com/prescaled/108/54/image2/BestBuy_US/images/products/6452/6452014_sd.jpg"
    },
    {
      "regularPrice": 9.99,
      "shortDescription": null,
      "name": "PopSockets - PopGrip Cell Phone Grip & Stand - Carbonite Weave",
      "image": "https://pisces.bbystatic.com/prescaled/500/500/image2/BestBuy_US/images/products/6331/6331942_sd.jpg",
      "thumbnailImage": "https://pisces.bbystatic.com/prescaled/108/54/image2/BestBuy_US/images/products/6331/6331942_sd.jpg"
    },
    {
      "regularPrice": 9.99,
      "shortDescription": null,
      "name": "PopSockets - PopGrip Cell Phone Grip & Stand - Mountain High",
      "image": "https://pisces.bbystatic.com/prescaled/500/500/image2/BestBuy_US/images/products/6452/6452008_sd.jpg",
      "thumbnailImage": "https://pisces.bbystatic.com/prescaled/108/54/image2/BestBuy_US/images/products/6452/6452008_sd.jpg"
    },
    {
      "regularPrice": 9.99,
      "shortDescription": null,
      "name": "PopSockets - PopGrip Cell Phone Grip & Stand - Cheeky Corgi",
      "image": "https://pisces.bbystatic.com/prescaled/500/500/image2/BestBuy_US/images/products/6499/6499822_sd.jpg",
      "thumbnailImage": "https://pisces.bbystatic.com/prescaled/108/54/image2/BestBuy_US/images/products/6499/6499822_sd.jpg"
    }
  ]
}
