{
  "from": 1,
  "to": 20,
  "currentPage": 1,
  "total": 89,
  "totalPages": 5,
  "queryTime": "0.011",
  "totalTime": "0.036",
  "partial": false,
  "canonicalUrl": "/v1/products((search=\"Romance\"))?show=regularPrice,shortDescription,name,image,thumbnailImage&sort=regularPrice&pageSize=20&format=json&apiKey=TEaoEZmvBDYZWr2hHVcHOZHY",
  "products": [
    {
      "regularPrice": 7.99,
      "shortDescription": null,
      "name": "Darla's Book Club: Discussing Romance Novels",
      "image": "https://pisces.bbystatic.com/prescaled/500/500/image2/BestBuy_US/images/products/e14c38f2-6d5f-4dcc-b6ae-7084f8568b55.jpg",
      "thumbnailImage": "https://pisces.bbystatic.com/prescaled/108/54/image2/BestBuy_US/images/products/e14c38f2-6d5f-4dcc-b6ae-7084f8568b55.jpg"
    },
    {
      "regularPrice": 7.99,
      "shortDescription": null,
      "name": "Romance on the Orient Express [DVD] [1985]",
      "image": "https://pisces.bbystatic.com/image2/BestBuy_US/images/products/3434/34345426_sa.jpg",
      "thumbnailImage": "https://pisces.bbystatic.com/image2/BestBuy_US/images/products/3434/34345426_s.gif"
    },
    {
      "regularPrice": 7.99,
      "shortDescription": null,
      "name": "4 Film Collection: Uptown Romance Collection [2 Discs] [DVD]",
      "image": "https://pisces.bbystatic.com/image2/BestBuy_US/images/products/3254/32540263_sa.jpg",
      "thumbnailImage": "https://pisces.bbystatic.com/image2/BestBuy_US/images/products/3254/32540263_s.gif"
    },
    {
      "regularPrice": 7.99,
      "shortDescription": null,
      "name": "Romance Double Feature: Must Love Dogs/You've Got Mail [DVD]",
      "image": "https://pisces.bbystatic.com/image2/BestBuy_US/images/products/8225/8225654_sa.jpg",
      "thumbnailImage": "https://pisces.bbystatic.com/image2/BestBuy_US/images/products/8225/8225654_s.gif"
    },
    {
      "regularPrice": 8.99,
      "shortDescription": null,
      "name": "Ingrid Bergman Romance Triple Feature [DVD]",
      "image": null,
      "thumbnailImage": null
    },
    {
      "regularPrice": 9.99,
      "shortDescription": null,
      "name": "Romance [1930]",
      "image": "https://pisces.bbystatic.com/prescaled/500/500/image2/BestBuy_US/images/products/4b42d155-456b-4e23-8c63-e2e7765d8a9f.jpg",
      "thumbnailImage": "https://pisces.bbystatic.com/prescaled/108/54/image2/BestBuy_US/images/products/4b42d155-456b-4e23-8c63-e2e7765d8a9f.jpg"
    },
    {
      "regularPrice": 9.99,
      "shortDescription": null,
      "name": "An American Romance [1944]",
      "image": "https://pisces.bbystatic.com/prescaled/500/500/image2/BestBuy_US/images/products/0038ed72-35b2-4869-b679-ab649e6ca590.jpg",
      "thumbnailImage": "https://pisces.bbystatic.com/prescaled/108/54/image2/BestBuy_US/images/products/0038ed72-35b2-4869-b679-ab649e6ca590.jpg"
    },
    {
      "regularPrice": 9.99,
      "shortDescription": null,
      "name": "Sun, Sand & Romance [2017]",
      "image": "https://pisces.bbystatic.com/prescaled/500/500/image2/BestBuy_US/images/products/ad7d162a-3c7d-4205-bb37-3afd15447077.jpg",
      "thumbnailImage": "https://pisces.bbystatic.com/prescaled/108/54/image2/BestBuy_US/images/products/ad7d162a-3c7d-4205-bb37-3afd15447077.jpg"
    },
    {
      "regularPrice": 9.99,
      "shortDescription": null,
      "name": "Christmas Recipe for Romance",
      "image": "https://pisces.bbystatic.com/prescaled/500/500/image2/BestBuy_US/images/products/fbbedb3a-3eeb-4897-aadf-b3c9fc65bb25.jpg",
      "thumbnailImage": "https://pisces.bbystatic.com/prescaled/108/54/image2/BestBuy_US/images/products/fbbedb3a-3eeb-4897-aadf-b3c9fc65bb25.jpg"
    },
    {
      "regularPrice": 9.99,
      "shortDescription": null,
      "name": "Harry & Meghan: A Very Modern Romance [2018]",
      "image": "https://pisces.bbystatic.com/prescaled/500/500/image2/BestBuy_US/images/products/1b7e5f97-ece1-4c82-ae09-45567164426f.jpg",
      "thumbnailImage": "https://pisces.bbystatic.com/prescaled/108/54/image2/BestBuy_US/images/products/1b7e5f97-ece1-4c82-ae09-45567164426f.jpg"
    },
    {
      "regularPrice": 9.99,
      "shortDescription": null,
      "name": "Harry & Meghan: A Modern Royal Romance/A Modern Royal Wedding",
      "image": "https://pisces.bbystatic.com/prescaled/500/500/image2/BestBuy_US/images/products/582a70dd-6238-4baf-9814-c2dfe0443cb5.jpg",
      "thumbnailImage": "https://pisces.bbystatic.com/prescaled/108/54/image2/BestBuy_US/images/products/582a70dd-6238-4baf-9814-c2dfe0443cb5.jpg"
    },
    {
      "regularPrice": 9.99,
      "shortDescription": null,
      "name": "Shiraz: A Romance of India [Blu-ray/DVD] [2 Discs]",
      "image": "https://pisces.bbystatic.com/prescaled/500/500/image2/BestBuy_US/images/products/f5081ca6-1f85-4c29-966a-507925210b51.jpg",
      "thumbnailImage": "https://pisces.bbystatic.com/prescaled/108/54/image2/BestBuy_US/images/products/f5081ca6-1f85-4c29-966a-507925210b51.jpg"
    },
    {
      "regularPrice": 9.99,
      "shortDescription": null,
      "name": "Holiday Romance Collection: Movie 4 Pack [2 Discs] [DVD]",
      "image": "https://pisces.bbystatic.com/image2/BestBuy_US/images/products/6134/6134906_sa.jpg",
      "thumbnailImage": "https://pisces.bbystatic.com/image2/BestBuy_US/images/products/6134/6134906_s.gif"
    },
    {
      "regularPrice": 9.99,
      "shortDescription": null,
      "name": "Sandra Bullock Romance Collection: 4 Film Favorites [2 Discs] [DVD]",
      "image": "https://pisces.bbystatic.com/image2/BestBuy_US/images/products/7343/7343136_sa.jpg",
      "thumbnailImage": "https://pisces.bbystatic.com/image2/BestBuy_US/images/products/7343/7343136_s.gif"
    },
    {
      "regularPrice": 11.99,
      "shortDescription": null,
      "name": "4 Film Favorite: Modern Romances Collection [4 Discs] [DVD]",
      "image": "https://pisces.bbystatic.com/image2/BestBuy_US/images/products/2906/29065147_sa.jpg",
      "thumbnailImage": "https://pisces.bbystatic.com/image2/BestBuy_US/images/products/2906/29065147_s.gif"
    },
    {
      "regularPrice": 11.99,
      "shortDescription": null,
      "name": "A Gingerbread Romance [2018]",
      "image": "https://pisces.bbystatic.com/prescaled/500/500/image2/BestBuy_US/images/products/4cee7d81-6478-4a25-a55d-1e444710859c.jpg",
      "thumbnailImage": "https://pisces.bbystatic.com/prescaled/108/54/image2/BestBuy_US/images/products/4cee7d81-6478-4a25-a55d-1e444710859c.jpg"
    },
    {
      "regularPrice": 11.99,
      "shortDescription": null,
      "name": "Tillie's Punctured Romance/Tillie Wakes [DVD]",
      "image": null,
      "thumbnailImage": null
    },
    {
      "regularPrice": 12.99,
      "shortDescription": null,
      "name": "Royal Romance Triple Feature [DVD]",
      "image": "https://pisces.bbystatic.com/image2/BestBuy_US/images/products/3458/34583205_sa.jpg",
      "thumbnailImage": "https://pisces.bbystatic.com/image2/BestBuy_US/images/products/3458/34583205_s.gif"
    },
    {
      "regularPrice": 13.99,
      "shortDescription": null,
      "name": "A Country Romance",
      "image": "https://pisces.bbystatic.com/prescaled/500/500/image2/BestBuy_US/images/products/357e8c68-35a5-475a-a146-aeb144044298.jpg",
      "thumbnailImage": "https://pisces.bbystatic.com/prescaled/108/54/image2/BestBuy_US/images/products/357e8c68-35a5-475a-a146-aeb144044298.jpg"
    },
    {
      "regularPrice": 13.99,
      "shortDescription": null,
      "name": "Royals and Romance: 3-Film Collection [DVD]",
      "image": "https://pisces.bbystatic.com/image2/BestBuy_US/images/products/3476/34761677_sa.jpg",
      "thumbnailImage": "https://pisces.bbystatic.com/image2/BestBuy_US/images/products/3476/34761677_s.gif"
    }
  ]
}
